<?xml version="1.0" encoding="UTF-8" standalone="no"?>
<svg
   height="512"
   viewBox="0 0 135.46666 135.46667"
   width="512"
   version="1.1"
   id="svg5694"
   sodipodi:docname="identificator.svg"
   inkscape:version="1.2.1 (9c6d41e, 2022-07-14)"
   xmlns:inkscape="http://www.inkscape.org/namespaces/inkscape"
   xmlns:sodipodi="http://sodipodi.sourceforge.net/DTD/sodipodi-0.dtd"
   xmlns="http://www.w3.org/2000/svg"
   xmlns:svg="http://www.w3.org/2000/svg">
  <defs
     id="defs5698" />
  <sodipodi:namedview
     id="namedview5696"
     pagecolor="#ffffff"
     bordercolor="#111111"
     borderopacity="1"
     inkscape:showpageshadow="0"
     inkscape:pageopacity="0"
     inkscape:pagecheckerboard="1"
     inkscape:deskcolor="#d1d1d1"
     showgrid="false"
     inkscape:zoom="1.3037281"
     inkscape:cx="53.30866"
     inkscape:cy="133.84692"
     inkscape:window-width="2560"
     inkscape:window-height="1440"
     inkscape:window-x="0"
     inkscape:window-y="0"
     inkscape:window-maximized="1"
     inkscape:current-layer="layer2" />
  <g
     inkscape:groupmode="layer"
     id="layer2"
     inkscape:label="Layer 1">
    <rect
       style="fill:#ffffff;stroke-width:0.529167"
       id="rect22335"
       width="135.46666"
       height="135.46666"
       x="0"
       y="0" />
  </g>
  <g
     clip-rule="evenodd"
     fill-rule="evenodd"
     stroke-linejoin="round"
     stroke-miterlimit="1.41421"
     transform="matrix(1.2577289,0,0,1.2577289,5.4701,6.9028226)"
     id="g5692">
    <path
       d="M 27.091558,-4.2079921 C 18.782991,2.3942867 6.1007659,11.599216 -1.2533026,17.655472 L 1.1154988,35.675522 54.933384,100.116 62.16176,100.87812 99.953227,69.844806 100.78096,62.659332 45.038423,-0.19045148 Z m 2.312441,17.9443431 c 4.573528,0.09984 8.567687,3.31423 9.370896,7.869366 0.917919,5.20587 -2.679054,10.191451 -8.034239,11.135721 -5.355255,0.944272 -10.440717,-2.510399 -11.358638,-7.716269 -0.917957,-5.205866 2.679022,-10.191445 8.034241,-11.135721 0.669406,-0.118033 1.334379,-0.16736 1.98774,-0.153097 z M 63.283913,30.021859 72.766689,41.322453 61.466935,50.80355 51.985002,39.502951 Z m -0.524905,6.009488 -4.764521,3.998193 3.997352,4.764521 4.765365,-3.998192 z m -11.25433,9.375945 1.355165,1.615091 1.354322,1.614248 1.613407,-1.354321 1.355166,1.614252 1.354321,1.614252 -1.614252,1.354321 -1.354321,-1.614252 -1.614252,1.355165 1.354321,1.613408 -1.614247,1.354321 1.355161,1.615092 -1.615092,1.354321 -1.614248,1.355166 -1.355165,-1.615092 -0.02523,0.02103 -1.353482,-1.613408 3.253738,-2.730512 -2.708646,-3.229344 -1.615092,1.355161 -1.354321,-1.614248 1.614252,-1.355165 1.614251,-1.354321 z m -10.820271,3.578436 1.355161,1.614252 1.353482,1.614252 1.355161,1.614247 1.354321,1.614252 1.355165,1.614252 1.354322,1.614248 1.354321,1.614252 -1.614252,1.355161 -1.614248,1.354325 -1.614252,1.354321 -1.614252,1.354322 -1.614247,1.355161 -1.614252,1.354321 -1.615092,1.355165 -1.354321,-1.615092 -1.354322,-1.614251 -1.355163,-1.614252 -1.354322,-1.614248 -1.354322,-1.614252 -1.354322,-1.614252 -1.355162,-1.614247 1.615091,-1.355166 1.61341,-1.354321 1.615092,-1.354321 1.613409,-1.354321 1.615091,-1.355166 1.613412,-1.354321 z m 34.614277,0.124495 1.16337,1.386287 1.16337,1.387132 1.387127,-1.164214 2.326744,2.773418 -1.387131,1.16337 1.163374,1.386287 1.405634,-1.154959 2.308233,2.764163 -1.387127,1.16421 -2.32674,-2.773414 -1.386287,1.16337 2.293934,2.743132 -1.343386,1.127201 -8.44e-4,0.0017 4.653484,5.545993 1.387127,-1.164214 1.16253,1.386287 -5.545988,4.653484 -1.16253,-1.385447 -1.387127,1.16337 -1.16337,-1.387127 1.386287,-1.16337 -3.493478,-4.155498 1.16253,1.386288 -1.386287,1.163369 1.16253,1.386288 -1.352641,1.134772 -1.352637,1.135612 -0.0673,0.05636 1.134768,1.352637 1.16337,1.386287 -1.387127,1.16337 -1.133928,-1.351797 -1.319831,1.107014 -5.789097,-6.89863 -1.520878,1.276091 -1.16253,-1.386288 -1.16421,-1.387131 -1.16253,-1.386287 -1.164214,-1.386287 1.415729,-1.12972 -1.16421,-1.387131 1.387127,-1.16337 -1.16337,-1.387127 1.386287,-1.16253 1.386288,-1.16421 1.164209,1.387127 1.16337,1.386287 -1.387127,1.16421 -1.385447,1.163374 1.134772,1.352637 1.386287,-1.16337 1.16337,1.386287 1.386287,-1.16337 1.164215,1.386287 -1.387132,1.16421 1.137296,1.354321 1.484705,-1.250852 3.490114,4.159702 1.353481,-1.134773 -1.16337,-1.386287 1.387127,-1.16337 -1.164214,-1.387127 1.387131,-1.164214 -1.163374,-1.385443 -1.387127,1.16337 -1.16337,-1.387127 -1.16337,-1.385447 1.387127,-1.164214 1.16337,1.386287 1.386287,-1.16337 -1.135612,-1.352637 1.352642,-1.135612 -2.32674,-2.772574 -1.386287,1.16337 1.164209,1.387127 -1.387126,1.163374 -1.16337,-1.387131 -1.163375,-1.386287 1.387132,-1.16337 1.386287,-1.16337 1.16253,1.386287 1.319831,-1.10701 -1.16337,-1.386287 z m 0.499666,8.973855 1.163374,1.387131 1.387127,-1.163374 -1.164214,-1.387127 z m -35.639692,-3.088021 -1.575554,1.321516 -1.613408,1.354321 -1.575557,1.321515 1.321514,1.574715 1.354321,1.614252 1.32236,1.574714 1.574714,-1.321515 1.614248,-1.354322 1.574715,-1.321515 -1.321516,-1.574714 -1.354321,-1.614252 z m 16.161853,5.761334 1.243285,1.481345 -1.483025,1.244124 3.701252,4.410377 -1.48218,1.243285 -1.235713,-1.47293 -4.454122,3.722283 1.243285,1.481341 -1.481345,1.243284 -1.243281,-1.48134 1.481341,-1.243285 -2.457127,-2.929036 -1.481341,1.243285 -1.243285,-1.481345 z m 22.967953,1.487232 -1.348433,1.131405 2.32674,2.772574 1.352641,-1.134768 c -0.631079,-0.75209 -2.330948,-2.769211 -2.330948,-2.769211 z m 3.494318,4.155498 -1.387127,1.16337 1.16421,1.387127 1.386287,-1.16421 z m -23.134505,5.185956 1.354321,1.614252 1.355161,1.614252 1.354321,1.614248 1.355165,1.614252 1.353482,1.614252 1.355161,1.614247 1.354321,1.614252 -1.615092,1.354321 -1.613407,1.354322 -1.615092,1.355165 -1.613412,1.354321 -1.615092,1.355161 -1.613408,1.353482 -1.615092,1.355161 -1.354321,-1.614248 -1.354321,-1.614252 -1.354321,-1.614252 -1.355166,-1.614247 -1.354321,-1.614252 -1.354321,-1.614252 -1.354321,-1.614248 1.614252,-1.354321 1.614247,-1.354326 1.614252,-1.355161 1.614252,-1.354321 1.614248,-1.354321 1.614252,-1.354321 z m -0.525749,6.00949 -1.575555,1.321515 -1.574714,1.322356 -1.614252,1.353481 1.321515,1.575554 1.355166,1.614252 1.321515,1.575555 1.614248,-1.354322 1.574714,-1.321515 1.575559,-1.321516 -1.32236,-1.575554 -1.354321,-1.614252 z"
       stroke-width="1.14209"
       id="path5688" />
  </g>
</svg>
